^C:\USERS\MPEPY\SOURCE\REPOS\PROJECT13\PROJECT13\FUNKCIJE.C|C:\USERS\MPEPY\SOURCE\REPOS\PROJECT13\PROJECT13\MAIN.C
C:\USERS\MPEPY\SOURCE\REPOS\PROJECT13\PROJECT13\DEBUG\VC142.PDB
C:\USERS\MPEPY\SOURCE\REPOS\PROJECT13\PROJECT13\DEBUG\VC142.IDB
C:\USERS\MPEPY\SOURCE\REPOS\PROJECT13\PROJECT13\DEBUG\MAIN.OBJ
C:\USERS\MPEPY\SOURCE\REPOS\PROJECT13\PROJECT13\DEBUG\FUNKCIJE.OBJ
^C:\USERS\MPEPY\SOURCE\REPOS\PROJECT13\PROJECT13\FUNKCIJE.C
C:\USERS\MPEPY\SOURCE\REPOS\PROJECT13\PROJECT13\DEBUG\VC142.PDB
^C:\USERS\MPEPY\SOURCE\REPOS\PROJECT13\PROJECT13\MAIN.C
C:\USERS\MPEPY\SOURCE\REPOS\PROJECT13\PROJECT13\DEBUG\VC142.PDB
