^C:\USERS\MPEPY\SOURCE\REPOS\PROJECT13\PROJECT13\DEBUG\FUNKCIJE.OBJ|C:\USERS\MPEPY\SOURCE\REPOS\PROJECT13\PROJECT13\DEBUG\MAIN.OBJ
/OUT:"C:\USERS\MPEPY\SOURCE\REPOS\PROJECT13\DEBUG\PROJECT13.EXE" /INCREMENTAL /NOLOGO KERNEL32.LIB USER32.LIB GDI32.LIB WINSPOOL.LIB COMDLG32.LIB ADVAPI32.LIB SHELL32.LIB OLE32.LIB OLEAUT32.LIB UUID.LIB ODBC32.LIB ODBCCP32.LIB /MANIFEST /MANIFESTUAC:"level='asInvoker' uiAccess='false'" /manifest:embed /DEBUG:FASTLINK /PDB:"C:\USERS\MPEPY\SOURCE\REPOS\PROJECT13\DEBUG\PROJECT13.PDB" /SUBSYSTEM:CONSOLE /TLBID:1 /DYNAMICBASE /NXCOMPAT /IMPLIB:"C:\USERS\MPEPY\SOURCE\REPOS\PROJECT13\DEBUG\PROJECT13.LIB" /MACHINE:X86 DEBUG\FUNKCIJE.OBJ
DEBUG\MAIN.OBJ
