^C:\USERS\ANTONIO\DESKTOP\TRGOVINA KNJIGA\PROJECT13\PROJECT13\X64\DEBUG\FUNKCIJE.OBJ|C:\USERS\ANTONIO\DESKTOP\TRGOVINA KNJIGA\PROJECT13\PROJECT13\X64\DEBUG\MAIN.OBJ
C:\USERS\ANTONIO\DESKTOP\TRGOVINA KNJIGA\PROJECT13\PROJECT13\X64\DEBUG\TRGOVINAPEPIC.ILK
C:\USERS\ANTONIO\DESKTOP\TRGOVINA KNJIGA\PROJECT13\X64\DEBUG\TRGOVINAPEPIC.EXE
C:\USERS\ANTONIO\DESKTOP\TRGOVINA KNJIGA\PROJECT13\X64\DEBUG\TRGOVINAPEPIC.PDB
