^C:\USERS\NIKPEP\DESKTOP\TONI\TRGOVINA KNJIGA\PROJECT13\PROJECT13\X64\DEBUG\FUNKCIJE.OBJ|C:\USERS\NIKPEP\DESKTOP\TONI\TRGOVINA KNJIGA\PROJECT13\PROJECT13\X64\DEBUG\MAIN.OBJ
/OUT:"C:\USERS\NIKPEP\DESKTOP\TONI\TRGOVINA KNJIGA\PROJECT13\X64\DEBUG\TRGOVINAPEPIC.EXE" /INCREMENTAL /ILK:"X64\DEBUG\TRGOVINAPEPIC.ILK" /NOLOGO KERNEL32.LIB USER32.LIB GDI32.LIB WINSPOOL.LIB COMDLG32.LIB ADVAPI32.LIB SHELL32.LIB OLE32.LIB OLEAUT32.LIB UUID.LIB ODBC32.LIB ODBCCP32.LIB /MANIFEST /MANIFESTUAC:"level='asInvoker' uiAccess='false'" /manifest:embed /DEBUG /PDB:"C:\USERS\NIKPEP\DESKTOP\TONI\TRGOVINA KNJIGA\PROJECT13\X64\DEBUG\TRGOVINAPEPIC.PDB" /SUBSYSTEM:CONSOLE /TLBID:1 /DYNAMICBASE /NXCOMPAT /IMPLIB:"C:\USERS\NIKPEP\DESKTOP\TONI\TRGOVINA KNJIGA\PROJECT13\X64\DEBUG\TRGOVINAPEPIC.LIB" /MACHINE:X64 X64\DEBUG\FUNKCIJE.OBJ
X64\DEBUG\MAIN.OBJ
^C:\USERS\ANTONIO\DESKTOP\TRGOVINA KNJIGA\PROJECT13\PROJECT13\X64\DEBUG\FUNKCIJE.OBJ|C:\USERS\ANTONIO\DESKTOP\TRGOVINA KNJIGA\PROJECT13\PROJECT13\X64\DEBUG\MAIN.OBJ
/OUT:"C:\USERS\ANTONIO\DESKTOP\TRGOVINA KNJIGA\PROJECT13\X64\DEBUG\TRGOVINAPEPIC.EXE" /INCREMENTAL /ILK:"X64\DEBUG\TRGOVINAPEPIC.ILK" /NOLOGO KERNEL32.LIB USER32.LIB GDI32.LIB WINSPOOL.LIB COMDLG32.LIB ADVAPI32.LIB SHELL32.LIB OLE32.LIB OLEAUT32.LIB UUID.LIB ODBC32.LIB ODBCCP32.LIB /MANIFEST /MANIFESTUAC:"level='asInvoker' uiAccess='false'" /manifest:embed /DEBUG /PDB:"C:\USERS\ANTONIO\DESKTOP\TRGOVINA KNJIGA\PROJECT13\X64\DEBUG\TRGOVINAPEPIC.PDB" /SUBSYSTEM:CONSOLE /TLBID:1 /DYNAMICBASE /NXCOMPAT /IMPLIB:"C:\USERS\ANTONIO\DESKTOP\TRGOVINA KNJIGA\PROJECT13\X64\DEBUG\TRGOVINAPEPIC.LIB" /MACHINE:X64 X64\DEBUG\FUNKCIJE.OBJ
X64\DEBUG\MAIN.OBJ
